<?xml version="1.0" encoding="utf-8"?>
<!DOCTYPE svg [
	<!ENTITY ns_flows "http://ns.adobe.com/Flows/1.0/">
]>
<svg version="1.2" baseProfile="tiny"
	 xmlns="http://www.w3.org/2000/svg" xmlns:xlink="http://www.w3.org/1999/xlink" xmlns:a="http://ns.adobe.com/AdobeSVGViewerExtensions/3.0/" viewBox="0 0 36 36" xml:space="preserve">
<rect fill="none" width="36" height="36"/>
<path fill="#FFFFFF" d="M30.895,16.535l-0.553,5.23h-4.181v15.176h-6.28V21.766H16.75v-5.23h3.131v-3.149
	c0-4.254,1.768-6.796,6.796-6.796h4.181v5.23h-2.615c-1.952,0-2.081,0.736-2.081,2.1v2.615H30.895z"/>
</svg>
