<?xml version="1.0" encoding="utf-8"?>
<!DOCTYPE svg PUBLIC "-//W3C//DTD SVG 1.1//EN" "http://www.w3.org/Graphics/SVG/1.1/DTD/svg11.dtd">

<svg version="1.1" id="ebene1" xmlns="http://www.w3.org/2000/svg" xmlns:xlink="http://www.w3.org/1999/xlink" x="0px" y="0px"
	 viewBox="0 0 17 10" enable-background="new 0 0 17 10" xml:space="preserve">
<rect x="0" y="0" width="20" height="10" fill="none"/>
<path fill="#cccccc" d="M5,0 L12,0 A5 5 0 0 1 12,10 L5,10 A5 5 0 0 1 5,0 Z" />
<circle cx="12" cy="5" r="4" fill="#00aa00" />
<path fill="none" stroke="#FFFFFF" stroke-width="1.5" d="M9.5,5 L11,7 L14.5,3" />
</svg>
